{
  "Groene Amsterdammer": {
    "domain": "groene.nl",
    "remove_cookies_select_hold": ["accept-cookies", "popunder-hidden"],
    "useragent": "googlebot"
  },
  "Substack": {
    "domain": "substack.com",
    "useragent": "googlebot",
    "new_site": 1
  },
  "Suomen Sotilas": {
    "domain": "suomensotilas.fi",
    "allow_cookies": 1,
    "block_regex": "\\/suomensotilas\\.fi\\/wp-content\\/plugins\\/epflpw\\/js\\/pw\\.js",
    "cs_code": [{
        "cond": "div.epfl-pw-obscured",
        "rm_class": "epfl-pw-obscured"
      }
    ],
    "new_site": 1
  },
  "The Athletic": {
    "domain": "###_usa_theathletic",
    "group": [
      "theathletic.com"
    ],
    "allow_cookies": 1,
    "block_regex": "cdn\\.ampproject\\.org\\/v\\d\\/amp-(access|subscriptions)-.+\\.js",
    "cs_code": [{
        "cond": "div[amp-access*=\"NOT granted\"]",
        "rm_elem": 1
      }
    ]
  }
}
